…
The data are clearly already stationary (as we are considering percentage changes rather than raw expenditure and income), so there is no need for any differencing. The fitted model is 


$$
y_t = 0.6 + 0.2 \text{Income} + \eta_t \\
\eta_t = 0.69\eta_{t-1} - 0.58\varepsilon_{t-1} + 0.2\varepsilon_{t-2} + \varepsilon_t \\
\varepsilon_t \sim NID(0, 0.32)
$$
We can recover estimates of both the ηt and εt series using the `residuals()` function.


```r
# regression errors
residuals(us_change_dynamic, type = "regression")
#> # A tsibble: 187 x 3 [1Q]
#> # Key:       .model [1]
#>   .model                         Time  .resid
#>   <chr>                         <qtr>   <dbl>
#> 1 ARIMA(Consumption ~ Income) 1970 Q1 -0.180 
#> 2 ARIMA(Consumption ~ Income) 1970 Q2 -0.376 
#> 3 ARIMA(Consumption ~ Income) 1970 Q3 -0.0373
#> 4 ARIMA(Consumption ~ Income) 1970 Q4 -0.822 
#> 5 ARIMA(Consumption ~ Income) 1971 Q1  0.895 
#> 6 ARIMA(Consumption ~ Income) 1971 Q2  0.0194
#> # ... with 181 more rows
# arima errors
residuals(us_change_dynamic, type = "innovation")
#> # A tsibble: 187 x 3 [1Q]
#> # Key:       .model [1]
#>   .model                         Time  .resid
#>   <chr>                         <qtr>   <dbl>
#> 1 ARIMA(Consumption ~ Income) 1970 Q1 -0.167 
#> 2 ARIMA(Consumption ~ Income) 1970 Q2 -0.320 
#> 3 ARIMA(Consumption ~ Income) 1970 Q3  0.0720
#> 4 ARIMA(Consumption ~ Income) 1970 Q4 -0.694 
#> 5 ARIMA(Consumption ~ Income) 1971 Q1  1.05  
#> 6 ARIMA(Consumption ~ Income) 1971 Q2  0.142 
#> # ... with 181 more rows
# augment returns arima errors
augment(us_change_dynamic)
#> # A tsibble: 187 x 5 [1Q]
#> # Key:       .model [1]
#>   .model                         Time Consumption .fitted  .resid
#>   <chr>                         <qtr>       <dbl>   <dbl>   <dbl>
#> 1 ARIMA(Consumption ~ Income) 1970 Q1       0.616   0.783 -0.167 
#> 2 ARIMA(Consumption ~ Income) 1970 Q2       0.460   0.780 -0.320 
#> 3 ARIMA(Consumption ~ Income) 1970 Q3       0.877   0.805  0.0720
#> 4 ARIMA(Consumption ~ Income) 1970 Q4      -0.274   0.419 -0.694 
#> 5 ARIMA(Consumption ~ Income) 1971 Q1       1.90    0.847  1.05  
#> 6 ARIMA(Consumption ~ Income) 1971 Q2       0.912   0.770  0.142 
#> # ... with 181 more rows
```
…
