…
### Train the model (estimate)  


```r
ge_fit <- global_economy %>% 
  model(trend_model = TSLM(GDP ~ trend()))

ge_fit
#> # A mable: 263 x 2
#> # Key:     Country [263]
#>   Country        trend_model
#>   <fct>          <model>    
#> 1 Afghanistan    <TSLM>     
#> 2 Albania        <TSLM>     
#> 3 Algeria        <TSLM>     
#> 4 American Samoa <TSLM>     
#> 5 Andorra        <TSLM>     
#> 6 Angola         <TSLM>     
#> # ... with 257 more rows
```
…
More discussed in \@ref(evaluating-model-accuracy)


### Produce forecasts (forecast)  

`forecast()` similar to `predict()`: 


```r
ge_forecast <- ge_fit %>% 
  forecast(h = "3 years") # h means horizon

ge_forecast
#> # A fable: 789 x 5 [1Y]
#> # Key:     Country, .model [263]
#>   Country     .model       Year          GDP .distribution                      
#>   <fct>       <chr>       <dbl>        <dbl> <dist>                             
#> 1 Afghanistan trend_model  2018 16205101654. N(16205101654, 1265597645265381580~
#> 2 Afghanistan trend_model  2019 16511878141. N(16511878141, 1270388702315504230~
#> 3 Afghanistan trend_model  2020 16818654627. N(16818654627, 1275331476172214681~
#> 4 Albania     trend_model  2018 13733734164. N(13733734164, 3853726871001717248)
#> 5 Albania     trend_model  2019 14166852711. N(14166852711, 3891477664840101376)
#> 6 Albania     trend_model  2020 14599971258. N(14599971258, 3931325725002840064)
#> # ... with 783 more rows
```
…
<img src="ch5_files/figure-html/unnamed-chunk-9-1.png" width="90%" style="display: block; margin: auto;" />

## Some simple forecasting methods  

Some forecasting methods are extremely simple and surprisingly effective. We will use four simple forecasting methods as benchmarks throughout this book.

To illustrate them, we will use quarterly Australian clay brick production between 1970 and 2004.  


```r
bricks <- aus_production %>% filter_index("1970" ~ "2004")
bricks
#> # A tsibble: 137 x 7 [1Q]
#>   Quarter  Beer Tobacco Bricks Cement Electricity   Gas
#>     <qtr> <dbl>   <dbl>  <dbl>  <dbl>       <dbl> <dbl>
#> 1 1970 Q1   387    6807    386   1049       12328    12
#> 2 1970 Q2   357    7612    428   1134       14493    18
#> 3 1970 Q3   374    7862    434   1229       15664    23
#> 4 1970 Q4   466    7126    417   1188       13781    20
#> 5 1971 Q1   410    7255    385   1058       13299    19
#> 6 1971 Q2   370    8076    433   1209       15230    23
#> # ... with 131 more rows
```
…
In both cases, there is a parameter to be estimated from the data. The “hat $\hat{}$” above the $c$ reminds us that this is an estimate. **When the estimate of $c$ involves observations after time $t$, the fitted values are not true forecasts.** On the other hand, naïve or seasonal naïve forecasts do not involve any parameters, and so fitted values are true forecasts in such cases.  

### Residuals  

$$
e_t = y_t - \hat{y}_t
$$



```r
augment(beer_fit)
#> # A tsibble: 180 x 5 [1Q]
#> # Key:       .model [3]
#>   .model Quarter  Beer .fitted .resid
#>   <chr>    <qtr> <dbl>   <dbl>  <dbl>
#> 1 Mean   1992 Q1   443    436.   6.55
#> 2 Mean   1992 Q2   410    436. -26.4 
#> 3 Mean   1992 Q3   420    436. -16.4 
#> 4 Mean   1992 Q4   532    436.  95.6 
#> 5 Mean   1993 Q1   433    436.  -3.45
#> 6 Mean   1993 Q2   421    436. -15.4 
#> # ... with 174 more rows
```
…
<img src="images/benchmark.png" width="90%" style="display: block; margin: auto;" />

Note that when $h = 1$ and T is large, these all give the same approximate value $\hat{\sigma}$.

Prediction intervals can easily be computed for you when using the fable package. For example, here is the output when using the naïve method for the Google stock price.  



```r
google_2015 %>%
  model(NAIVE(Close)) %>%
  forecast(h = 10) %>%
  hilo(level = 95) %>% 
  unnest(`95%`)
#> # A tibble: 10 x 7
#>   Symbol .model         day Close .lower .upper .level
#>   <chr>  <chr>        <dbl> <dbl>  <dbl>  <dbl>  <dbl>
#> 1 GOOG   NAIVE(Close)   505  759.   737.   781.     95
#> 2 GOOG   NAIVE(Close)   506  759.   728.   790.     95
#> 3 GOOG   NAIVE(Close)   507  759.   721.   797.     95
#> 4 GOOG   NAIVE(Close)   508  759.   715.   803.     95
#> 5 GOOG   NAIVE(Close)   509  759.   710.   808.     95
#> 6 GOOG   NAIVE(Close)   510  759.   705.   813.     95
#> # ... with 4 more rows
```
…
Since sampling could generate different sets of future residuals, we thus get different paths of $y_{T+1}, y_{T+2}, \dots$. And we can then derive the $1 - \alpha$ prediction interval simply by calculating a correspoing percentile based on each $\hat{y}_{T+1}, \hat{y}_{T+2}, \dots$ and numerous simulated path.  

`generate()` lets us see some possible futures:  


```r
google_fit <- google_2015 %>% 
  model(NAIVE(Close))

sim <- google_fit %>% 
  generate(h = 30, times = 5, bootstrap = TRUE) 

sim
#> # A tsibble: 150 x 5 [1]
#> # Key:       Symbol, .model, .rep [5]
#>   Symbol .model        .rep   day  .sim
#>   <chr>  <chr>        <int> <dbl> <dbl>
#> 1 GOOG   NAIVE(Close)     1   505  724.
#> 2 GOOG   NAIVE(Close)     1   506  722.
#> 3 GOOG   NAIVE(Close)     1   507  700.
#> 4 GOOG   NAIVE(Close)     1   508  696.
#> 5 GOOG   NAIVE(Close)     1   509  696.
#> 6 GOOG   NAIVE(Close)     1   510  698.
#> # ... with 144 more rows
```
…
<img src="ch5_files/figure-html/unnamed-chunk-28-1.png" width="90%" style="display: block; margin: auto;" />


This is all built into the `forecast()` function so we do not need to call generate() directly:  


```r
google_bootstrap_fc <- google_fit %>% forecast(h = 30, bootstrap = TRUE)
google_bootstrap_fc
#> # A fable: 30 x 5 [1]
#> # Key:     Symbol, .model [1]
#>   Symbol .model         day Close .distribution  
#>   <chr>  <chr>        <dbl> <dbl> <dist>         
#> 1 GOOG   NAIVE(Close)   505  759. sim(=dbl[5000])
#> 2 GOOG   NAIVE(Close)   506  759. sim(=dbl[5000])
#> 3 GOOG   NAIVE(Close)   507  759. sim(=dbl[5000])
#> 4 GOOG   NAIVE(Close)   508  759. sim(=dbl[5000])
#> 5 GOOG   NAIVE(Close)   509  759. sim(=dbl[5000])
#> 6 GOOG   NAIVE(Close)   510  759. sim(=dbl[5000])
#> # ... with 24 more rows
```
…
With time series forecasting, one-step forecasts may not be as relevant as multi-step forecasts. In this case, the cross-validation procedure based on a rolling forecasting origin can be modified to allow multi-step errors to be used. Suppose that we are interested in models that produce good 4-step-ahead forecasts. Then the corresponding diagram is shown below.  

<img src="images/cv_multi.png" width="90%" style="display: block; margin: auto;" />

 `stretch_tsibble()` generates multiple folds as we specified: (may subject to change, I havn't found a corresponding function in the **slider** package, perhaps `vfold_cv` from **rsample** in the future?)


```r
# demonstrate `stretch_tsibble()` on a small subset
google_2015 %>%
  slice(1:7) %>% 
  stretch_tsibble(.init = 3, .step = 1) %>%  # initial window size = 3, incremental step = 1
  as_tibble()
#> # A tibble: 25 x 10
#>   Symbol Date        Open  High   Low Close Adj_Close  Volume   day   .id
#>   <chr>  <date>     <dbl> <dbl> <dbl> <dbl>     <dbl>   <dbl> <int> <int>
#> 1 GOOG   2015-01-02  526.  528.  521.  522.      522. 1447600   253     1
#> 2 GOOG   2015-01-05  520.  521.  510.  511.      511. 2059800   254     1
#> 3 GOOG   2015-01-06  512.  513.  498.  499.      499. 2899900   255     1
#> 4 GOOG   2015-01-02  526.  528.  521.  522.      522. 1447600   253     2
#> 5 GOOG   2015-01-05  520.  521.  510.  511.      511. 2059800   254     2
#> 6 GOOG   2015-01-06  512.  513.  498.  499.      499. 2899900   255     2
#> # ... with 19 more rows
```
…
fc <- google_2015_tr %>%
  model(RW(Close ~ drift())) %>%
  forecast(h = 8) %>%
  group_by(.id) %>%
  mutate(h = row_number()) %>%
  ungroup()
```



```r
# by indicates accuracy should be averaged over same "h"
fc %>%
  accuracy(google_2015, by = "h")
#> # A tibble: 8 x 9
#>       h .type    ME  RMSE   MAE   MPE  MAPE  MASE   ACF1
#>   <int> <chr> <dbl> <dbl> <dbl> <dbl> <dbl> <dbl>  <dbl>
#> 1     1 Test  0.729  11.3  7.26 0.113  1.20  1.02 0.0961
#> 2     2 Test  1.47   16.9 11.0  0.223  1.83  1.54 0.515 
#> 3     3 Test  2.21   20.8 14.0  0.334  2.34  1.97 0.671 
#> 4     4 Test  2.96   23.9 16.0  0.451  2.66  2.26 0.749 
#> 5     5 Test  3.79   26.5 17.7  0.580  2.95  2.51 0.791 
#> 6     6 Test  4.66   28.8 19.4  0.713  3.22  2.74 0.826 
#> # ... with 2 more rows
```
…
where $\sigma_h^2$ is the h-step forecast variance on the transformed scale. The larger the forecast variance, the bigger the difference between the mean and the median. Estimation of $\sigma_h^2$ is mentioned in \@ref(predict-interval)

The difference between the simple back-transformed forecast given by Equation \@ref(eq:box-cox) and the mean by equation \@ref(eq:bias-adjusted) is called the **bias**. When we use the mean, rather than the median, we say the point forecasts have been **bias-adjusted**.


```r
eggs <- fma::eggs %>% as_tsibble()
eggs
#> # A tsibble: 94 x 2 [1Y]
#>   index value
#>   <dbl> <dbl>
#> 1  1900  277.
#> 2  1901  315.
#> 3  1902  315.
#> 4  1903  321.
#> 5  1904  315.
#> 6  1905  318.
#> # ... with 88 more rows
…
