5.8 Forecasting using transformations | Notes for “Forecasting: Principles and Practice, 3rd edition”
…
\[\begin{equation}
y_t =           \tag{5.1}
\begin{cases}
\exp{(w_t)}[1 + \frac{\sigma_h^2}{2}] & \text{if} \; \lambda = 0 \\
(\lambda w_t + 1)^{1/\lambda}[1 + \frac{\sigma_h^2{1 - \lambda}}{2(\lambda w_t + 1)^2}] & \text{otherwise}
\end{cases}
\end{equation}\]

where \(\sigma_h^2\) is the h-step forecast variance on the transformed scale. The larger the forecast variance, the bigger the difference between the mean and the median. Estimation of \(\sigma_h^2\) is mentioned in 5.5

The difference between the simple back-transformed forecast given by Equation (3.1) and the mean by equation (5.1) is called the bias. When we use the mean, rather than the median, we say the point forecasts have been bias-adjusted.

eggs <- fma::eggs %>% as_tsibble()
eggs
#> # A tsibble: 94 x 2 [1Y]
#>   index value
#>   <dbl> <dbl>
#> 1  1900  277.
#> 2  1901  315.
#> 3  1902  315.
#> 4  1903  321.
#> 5  1904  315.
#> 6  1905  318.
#> # ... with 88 more rows
…
