Chapter 2 Time series graphics | Notes for “Forecasting: Principles and Practice, 3rd edition”
…
x
#> # A tsibble: 5 x 2 [1Y]
#>    Year Observation
#>   <int>       <dbl>
#> 1  2015         123
#> 2  2016          39
#> 3  2017          78
#> 4  2018          52
#> 5  2019         110

Multiple time series, key:

olympic_running
#> # A tsibble: 312 x 4 [4Y]
#> # Key:       Length, Sex [14]
#>    Year Length Sex    Time
#>   <int>  <int> <chr> <dbl>
#> 1  1896    100 men    12  
#> 2  1900    100 men    11  
#> 3  1904    100 men    11  
#> 4  1908    100 men    10.8
#> 5  1912    100 men    10.8
#> 6  1916    100 men    NA  
#> # ... with 306 more rows
…
2.1.1 manipulation

tidyverse-based manipulation

PBS
#> # A tsibble: 65,219 x 9 [1M]
#> # Key:       Concession, Type, ATC1, ATC2 [336]
#>      Month Concession  Type   ATC1  ATC1_desc    ATC2  ATC2_desc   Scripts  Cost
#>      <mth> <chr>       <chr>  <chr> <chr>        <chr> <chr>         <dbl> <dbl>
#> 1 1991 Jul Concession~ Co-pa~ A     Alimentary ~ A01   STOMATOLOG~   18228 67877
#> 2 1991 Aug Concession~ Co-pa~ A     Alimentary ~ A01   STOMATOLOG~   15327 57011
#> 3 1991 Sep Concession~ Co-pa~ A     Alimentary ~ A01   STOMATOLOG~   14775 55020
#> 4 1991 Oct Concession~ Co-pa~ A     Alimentary ~ A01   STOMATOLOG~   15380 57222
#> 5 1991 Nov Concession~ Co-pa~ A     Alimentary ~ A01   STOMATOLOG~   14371 52120
#> 6 1991 Dec Concession~ Co-pa~ A     Alimentary ~ A01   STOMATOLOG~   15028 54299
#> # ... with 65,213 more rows

PBS %>%
  filter(ATC2 == "A10")
#> # A tsibble: 816 x 9 [1M]
#> # Key:       Concession, Type, ATC1, ATC2 [4]
#>      Month Concession  Type   ATC1  ATC1_desc    ATC2  ATC2_desc  Scripts   Cost
#>      <mth> <chr>       <chr>  <chr> <chr>        <chr> <chr>        <dbl>  <dbl>
#> 1 1991 Jul Concession~ Co-pa~ A     Alimentary ~ A10   ANTIDIABE~   89733 2.09e6
#> 2 1991 Aug Concession~ Co-pa~ A     Alimentary ~ A10   ANTIDIABE~   77101 1.80e6
#> 3 1991 Sep Concession~ Co-pa~ A     Alimentary ~ A10   ANTIDIABE~   76255 1.78e6
#> 4 1991 Oct Concession~ Co-pa~ A     Alimentary ~ A10   ANTIDIABE~   78681 1.85e6
#> 5 1991 Nov Concession~ Co-pa~ A     Alimentary ~ A10   ANTIDIABE~   70554 1.69e6
#> 6 1991 Dec Concession~ Co-pa~ A     Alimentary ~ A10   ANTIDIABE~   75814 1.84e6
#> # ... with 810 more rows

# index column is automatically selected
PBS %>%
  filter(ATC2=="A10") %>%
  select(Concession, Type, ATC1)
#> # A tsibble: 816 x 4 [1M]
#> # Key:       Concession, Type, ATC1 [4]
#>   Concession   Type        ATC1     Month
#>   <chr>        <chr>       <chr>    <mth>
#> 1 Concessional Co-payments A     1991 Jul
#> 2 Concessional Co-payments A     1991 Aug
#> 3 Concessional Co-payments A     1991 Sep
#> 4 Concessional Co-payments A     1991 Oct
#> 5 Concessional Co-payments A     1991 Nov
#> 6 Concessional Co-payments A     1991 Dec
#> # ... with 810 more rows
…
As to summarize(), index is automatically used as the grouping variable:

PBS %>%
  filter(ATC2 == "A10") %>%
  select(Month, Concession, Type, Cost) %>%
  summarise(total_cost = sum(Cost))
#> # A tsibble: 204 x 2 [1M]
#>      Month total_cost
#>      <mth>      <dbl>
#> 1 1991 Jul    3526591
#> 2 1991 Aug    3180891
#> 3 1991 Sep    3252221
#> 4 1991 Oct    3611003
#> 5 1991 Nov    3565869
#> 6 1991 Dec    4306371
#> # ... with 198 more rows

The mutate(), here we change the units from dollars to millions of dollars:

PBS %>%
  filter(ATC2 == "A10") %>%
  select(Month, Concession, Type, Cost) %>%
  summarise(total_cost = sum(Cost)) %>%
  mutate(cost = total_cost / 1e6) -> a10

a10
#> # A tsibble: 204 x 3 [1M]
#>      Month total_cost  cost
#>      <mth>      <dbl> <dbl>
#> 1 1991 Jul    3526591  3.53
#> 2 1991 Aug    3180891  3.18
#> 3 1991 Sep    3252221  3.25
#> 4 1991 Oct    3611003  3.61
#> 5 1991 Nov    3565869  3.57
#> 6 1991 Dec    4306371  4.31
#> # ... with 198 more rows

2.1.2 importing

prison <- vroom::vroom("https://OTexts.com/fpp3/extrafiles/prison_population.csv")

prison <-  prison %>%
  mutate(quarter = yearquarter(Date)) %>%
  select(-Date) %>%
  as_tsibble(key = c(State, Gender, Legal, Indigenous), index = quarter)

prison
#> # A tsibble: 3,072 x 6 [1Q]
#> # Key:       State, Gender, Legal, Indigenous [64]
#>   State Gender Legal    Indigenous Count quarter
#>   <chr> <chr>  <chr>    <chr>      <dbl>   <qtr>
#> 1 ACT   Female Remanded ATSI           0 2005 Q1
#> 2 ACT   Female Remanded ATSI           1 2005 Q2
#> 3 ACT   Female Remanded ATSI           0 2005 Q3
#> 4 ACT   Female Remanded ATSI           0 2005 Q4
#> 5 ACT   Female Remanded ATSI           1 2006 Q1
#> 6 ACT   Female Remanded ATSI           1 2006 Q2
#> # ... with 3,066 more rows

2.2 Time plots

(melsyd_economy <- ansett %>%
  filter(Airports == "MEL-SYD", Class == "Economy"))
#> # A tsibble: 282 x 4 [1W]
#> # Key:       Airports, Class [1]
#>       Week Airports Class   Passengers
#>     <week> <chr>    <chr>        <dbl>
#> 1 1987 W26 MEL-SYD  Economy      20167
#> 2 1987 W27 MEL-SYD  Economy      20161
#> 3 1987 W28 MEL-SYD  Economy      19993
#> 4 1987 W29 MEL-SYD  Economy      20986
#> 5 1987 W30 MEL-SYD  Economy      20497
#> 6 1987 W31 MEL-SYD  Economy      20770
#> # ... with 276 more rows
…
The blue horizontal lines indicate the means for each month. This form of plot enables the underlying seasonal pattern to be seen clearly, and also shows the changes in seasonality over time. It is especially useful in identifying changes within particular seasons. In this example, the plot is not particularly revealing; but in some cases, this is the most useful way of viewing seasonal changes over time.

2.5.1 Example: Australian holiday tourism

holiday_tourism contains holiday tourists from 1998 to 2017, deaggregated by Region, State:

holiday_tourism <- tourism %>% 
  filter(Purpose == "Holiday") %>%
  select(-Purpose)

holiday_tourism 
#> # A tsibble: 6,080 x 4 [1Q]
#> # Key:       Region, State [76]
#>   Quarter Region   State           Trips
#>     <qtr> <chr>    <chr>           <dbl>
#> 1 1998 Q1 Adelaide South Australia  224.
#> 2 1998 Q2 Adelaide South Australia  130.
#> 3 1998 Q3 Adelaide South Australia  156.
#> 4 1998 Q4 Adelaide South Australia  182.
#> 5 1999 Q1 Adelaide South Australia  185.
#> 6 1999 Q2 Adelaide South Australia  135.
#> # ... with 6,074 more rows
…
given \(x_t = y_t\) and \(y_t = y_{t-k}\) we get the autocorrelation coefficient:

\[
r_k = r_{y_t,y_{t-k}} = \frac{\sum{(y_t - \bar{y})(y_{t-k} - \bar{y})}}{\sum{(y_t - \bar{y})^2}}
\]

The autocorrelation coefficients make up the autocorrelation function or ACF.

The autocorrelation coefficients for the beer production data can be computed using the ACF(.data, lag_max) function, with lag_max defaulting to \(10 \times \log{\frac{N}{M}}\) where \(N\) is the number of observations and \(M\) the number of series..

recent_production %>% ACF(Beer)
#> # A tsibble: 18 x 2 [1Q]
#>     lag     acf
#>   <lag>   <dbl>
#> 1    1Q -0.102 
#> 2    2Q -0.657 
#> 3    3Q -0.0603
#> 4    4Q  0.869 
#> 5    5Q -0.0892
#> 6    6Q -0.635 
#> # ... with 12 more rows
…
In contrast, frame_calendar() display calendar plot not by facetting, but by computing a more compact calendar grids as a data frame or a tibble according to its data input, and ggplot2 takes care of the plotting as you usually do with a data frame. This is a faster, more flexible alternative.

Note center is just a normal tibble:

# sensor only–Melbourne Convention Exhibition Centre
center <- hourly_peds %>% 
  filter(Year == "2017", Sensor_Name == "Melbourne Convention Exhibition Centre")

center
#> # A tibble: 2,880 x 10
#>   Date_Time           Date        Year Month Mdate Day    Time Sensor_ID
#>   <dttm>              <date>     <dbl> <ord> <dbl> <ord> <dbl>     <dbl>
#> 1 2017-01-01 00:00:00 2017-01-01  2017 Janu~     1 Sund~     0        25
#> 2 2017-01-01 01:00:00 2017-01-01  2017 Janu~     1 Sund~     1        25
#> 3 2017-01-01 02:00:00 2017-01-01  2017 Janu~     1 Sund~     2        25
#> 4 2017-01-01 03:00:00 2017-01-01  2017 Janu~     1 Sund~     3        25
#> 5 2017-01-01 04:00:00 2017-01-01  2017 Janu~     1 Sund~     4        25
#> 6 2017-01-01 05:00:00 2017-01-01  2017 Janu~     1 Sund~     5        25
#> # ... with 2,874 more rows, and 2 more variables: Sensor_Name <chr>,
#> #   Hourly_Counts <dbl>
…
