2.1 tsibble objects | Notes for “Forecasting: Principles and Practice, 3rd edition”
…
x
#> # A tsibble: 5 x 2 [1Y]
#>    Year Observation
#>   <int>       <dbl>
#> 1  2015         123
#> 2  2016          39
#> 3  2017          78
#> 4  2018          52
#> 5  2019         110

Multiple time series, key:

olympic_running
#> # A tsibble: 312 x 4 [4Y]
#> # Key:       Length, Sex [14]
#>    Year Length Sex    Time
#>   <dbl> <fct>  <chr> <dbl>
#> 1  1896 100m   men    12  
#> 2  1900 100m   men    11  
#> 3  1904 100m   men    11  
#> 4  1908 100m   men    10.8
#> 5  1912 100m   men    10.8
#> 6  1916 100m   men    NA  
#> # ... with 306 more rows
…
PBS %>%
  filter(ATC2 == "A10")
#> # A tsibble: 816 x 9 [1M]
#> # Key:       Concession, Type, ATC1, ATC2 [4]
#>        Month Concession  Type  ATC1  ATC1_desc   ATC2  ATC2_desc  Scripts   Cost
#>        <mth> <chr>       <chr> <chr> <chr>       <chr> <chr>        <dbl>  <dbl>
#> 1   1991 7月 Concession~ Co-p~ A     Alimentary~ A10   ANTIDIABE~   89733 2.09e6
#> 2   1991 8月 Concession~ Co-p~ A     Alimentary~ A10   ANTIDIABE~   77101 1.80e6
#> 3   1991 9月 Concession~ Co-p~ A     Alimentary~ A10   ANTIDIABE~   76255 1.78e6
#> 4  1991 10月 Concession~ Co-p~ A     Alimentary~ A10   ANTIDIABE~   78681 1.85e6
#> 5  1991 11月 Concession~ Co-p~ A     Alimentary~ A10   ANTIDIABE~   70554 1.69e6
#> 6  1991 12月 Concession~ Co-p~ A     Alimentary~ A10   ANTIDIABE~   75814 1.84e6
#> # ... with 810 more rows

# index column is automatically selected
PBS %>%
  filter(ATC2=="A10") %>%
  select(Concession, Type, ATC1)
#> # A tsibble: 816 x 4 [1M]
#> # Key:       Concession, Type, ATC1 [4]
#>   Concession   Type        ATC1      Month
#>   <chr>        <chr>       <chr>     <mth>
#> 1 Concessional Co-payments A      1991 7月
#> 2 Concessional Co-payments A      1991 8月
#> 3 Concessional Co-payments A      1991 9月
#> 4 Concessional Co-payments A     1991 10月
#> 5 Concessional Co-payments A     1991 11月
#> 6 Concessional Co-payments A     1991 12月
#> # ... with 810 more rows
…
As to summarize(), index is automatically used as the grouping variable:

PBS %>%
  filter(ATC2 == "A10") %>%
  select(Month, Concession, Type, Cost) %>%
  summarise(total_cost = sum(Cost))
#> # A tsibble: 204 x 2 [1M]
#>       Month total_cost
#>       <mth>      <dbl>
#> 1  1991 7月    3526591
#> 2  1991 8月    3180891
#> 3  1991 9月    3252221
#> 4 1991 10月    3611003
#> 5 1991 11月    3565869
#> 6 1991 12月    4306371
#> # ... with 198 more rows

The mutate(), here we change the units from dollars to millions of dollars:

PBS %>%
  filter(ATC2 == "A10") %>%
  select(Month, Concession, Type, Cost) %>%
  summarise(total_cost = sum(Cost)) %>%
  mutate(cost = total_cost / 1e6) -> a10

a10
#> # A tsibble: 204 x 3 [1M]
#>       Month total_cost  cost
#>       <mth>      <dbl> <dbl>
#> 1  1991 7月    3526591  3.53
#> 2  1991 8月    3180891  3.18
#> 3  1991 9月    3252221  3.25
#> 4 1991 10月    3611003  3.61
#> 5 1991 11月    3565869  3.57
#> 6 1991 12月    4306371  4.31
#> # ... with 198 more rows

2.1.2 importing

prison <- vroom::vroom("https://OTexts.com/fpp3/extrafiles/prison_population.csv")

prison <-  prison %>%
  mutate(quarter = yearquarter(date)) %>%
  select(-date) %>%
  as_tsibble(key = c(state, gender, legal, indigenous), index = quarter)

prison
#> # A tsibble: 3,072 x 6 [1Q]
#> # Key:       state, gender, legal, indigenous [64]
#>   state gender legal    indigenous count quarter
#>   <chr> <chr>  <chr>    <chr>      <dbl>   <qtr>
#> 1 ACT   Female Remanded ATSI           0 2005 Q1
#> 2 ACT   Female Remanded ATSI           1 2005 Q2
#> 3 ACT   Female Remanded ATSI           0 2005 Q3
#> 4 ACT   Female Remanded ATSI           0 2005 Q4
#> 5 ACT   Female Remanded ATSI           1 2006 Q1
#> 6 ACT   Female Remanded ATSI           1 2006 Q2
#> # ... with 3,066 more rows
